{
    // ################
    // # DISPLAY PART #
    // ################
      "Std::cout": {
      "prefix": "cout",
      "body": [
        "std::cout << ${1:\"TEXT\"} << std::endl;"
      ],
      "description": "std::cout"
    },
    "Std::cin": {
      "prefix": "cin",
      "body": [
        "std::cin << ${1:\"TEXT\"} << std::endl;"
      ],
      "description": "std::cout"
    },
    "Std::cerr": {
      "prefix": "cerr",
      "body": [
        "std::cerr << ${1:\"TEXT\"} << std::endl;"
      ],
      "description": "std::cout"
    },
    // ################
    // # DECLARATIONS #
    // ################
    "Class_declaration": {
      "prefix": "cl",
      "body": [
        "#ifndef $1_HPP",
        "# define $1_HPP",
        "",
        "#include <iostream>",
        "#include <string>",
        "",
        "class ${2:name_t}",
        "{",
        "  private:",
        "",
        "  protected:",
        "    $3",
        "  public:",
        "    $2(void);",
        "    $2($2 const &src);",
        "    virtual ~$2(void);",
        "",
        "    $2 &	operator=($2 const &rhs);",
        "};",
        "",
        "//std::ostream &	operator<<(std::ostream &o, $2 const &rhs);",
        "",
        "#endif"
      ],
      "description": "std::cout"
    },
    "exeption_declarationClass": {
      "prefix": "clexec",
      "body": [
        "class ${1:Exception} : public std::exception",
        "{",
        "  public :",
        "    virtual const char* what() const throw();",
        "};"
      ],
      "description": "exeption_declarationClass"
    },
    "exeption_declarationCpp": {
      "prefix": "clcexe",
      "body": [
        "const char* ${1:Class}::${2:Exception}::what() const throw() {",
            "return \"${3:Message}\";"
      ],
      "description": "exeption_declarationCpp"
    },
    "TryCatch": {
      "prefix": "try",
      "body": [
        "try {",
        "  ${1:\"Do Stuff\"}",
        "}",
        "catch (std::exception &e) {",
        "  std::cerr << e.what() << std::endl;",
        "}"
      ],
      "description": "TryCatch"
    },
    // ###############
    // # DEFINITIONS #
    // ###############
    "Class_definition": {
      "prefix": "clc",
      "body": [
        "#include \"$1.hpp\"",
    "",
        "$1::$1(void) $2",
        "{",
        "//	std::cout << \" $1 Default Constructor \" << std::endl;",
        "  return;",
        "}",
    "",
        "$1::$1($1 const &src)",
        "{",
        "//	std::cout << \" $1 Copy Constructor \" << std::endl;",
        "  *this = src;",
        "  return;",
        "}",
    "",
        "$1::~$1(void)",
        "{",
        "//	std::cout << \" $1 Destructor \" << std::endl;",
        "  return;",
        "}",
    "",
        "$1 &	$1::operator=($1 const &rhs)",
        "{",
        "//	std::cout << \" $1 Assignement Operator \" << std::endl;",
        "//	if (this != &rhs)",
        "//		this->_foo = rhs.getFoo();",
        "  return *this;",
        "}",
      ],
      "description": "Class_definition"
    },
    "Getter Setter Value": {
      "prefix": "gsv",
      "body": [
          "${1:\/*Type*\/}\tget${2:\/*Name*\/}(void) const;",
          "void\tset${2:\/*Name*\/}(${1:\/*Type*\/} ${2:\/*Name*\/});",
          "",
          "${1:\/*Type*\/}	_${2:\/*Name*\/};"
      ],
      "description": "Getter Setter Value"
    },
    "Getter": {
      "prefix": "get",
      "body": [
          "${1:Type} ${2:Class}::get${3:Name}() const { return this->_${4:name}; }"
      ],
      "description": "Getter "
    },
    "Include": {
      "prefix": "inc",
      "body": [
          "#include \"${1:.h}\""
      ],
      "description": "Include"
    },
    }